{
  "idps" : [
    {
      "name":"proxy_default",
      "issuer":"http://etda-proxy.wisered.com",
      "authorization_endpoint":"http://etda-proxy.wisered.com/proxy",
      "token_endpoint":"http://etda-proxy.wisered.com/proxy/token",
      "userinfo_endpoint":"",
      "jwks_uri":"http://etda-proxy.wisered.com/proxy/.well-known/jwks.json",
      "client_id":"7e4ca2fa5d074543cf6a",
      "client_secret":"2fad960c94a967fb12027c374ead9c4026c49955",
      "assertion_consumer":"http://etda-rp.wisered.com/assertion_consumer",
      "scope":"openid profile",
      "alg":"RS256"
    },
    {
      "name":"proxy_public",
      "issuer":"http://etda-proxy.wisered.com",
      "authorization_endpoint":"http://etda-proxy.wisered.com/proxy",
      "token_endpoint":"http://etda-proxy.wisered.com/proxy/token",
      "userinfo_endpoint":"",
      "jwks_uri":"http://etda-proxy.wisered.com/proxy/.well-known/jwks.json",
      "client_id":"7e4ca2fa5d074543cf6a",
      "client_secret":"2fad960c94a967fb12027c374ead9c4026c49955",
      "assertion_consumer":"http://etda-rp.wisered.com/assertion_consumer",
      "scope":"openid",
      "alg":"RS256",
      "sector": "urn:did:sector:public"
    },
    {
      "name":"proxy_ial_aal_2",
      "issuer":"http://etda-proxy.wisered.com",
      "authorization_endpoint":"http://etda-proxy.wisered.com/proxy",
      "token_endpoint":"http://etda-proxy.wisered.com/proxy/token",
      "userinfo_endpoint":"",
      "jwks_uri":"http://etda-proxy.wisered.com/proxy/.well-known/jwks.json",
      "client_id":"7e4ca2fa5d074543cf6a",
      "client_secret":"2fad960c94a967fb12027c374ead9c4026c49955",
      "assertion_consumer":"http://etda-rp.wisered.com/assertion_consumer",
      "scope":"openid profile",
      "alg":"RS256",
      "ial": "urn:did:ial:2",
      "aal": "urn:did:aal:2"
    },
    {
      "name":"proxy_ial_aal_3",
      "issuer":"http://etda-proxy.wisered.com",
      "authorization_endpoint":"http://etda-proxy.wisered.com/proxy",
      "token_endpoint":"http://etda-proxy.wisered.com/proxy/token",
      "userinfo_endpoint":"",
      "jwks_uri":"http://etda-proxy.wisered.com/proxy/.well-known/jwks.json",
      "client_id":"7e4ca2fa5d074543cf6a",
      "client_secret":"2fad960c94a967fb12027c374ead9c4026c49955",
      "assertion_consumer":"http://etda-rp.wisered.com/assertion_consumer",
      "scope":"openid",
      "alg":"RS256",
      "ial": "urn:did:ial:3",
      "aal": "urn:did:aal:3"
    },
    {
      "name":"proxy_google",
      "issuer":"http://etda-proxy.wisered.com",
      "authorization_endpoint":"http://etda-proxy.wisered.com/proxy",
      "token_endpoint":"http://etda-proxy.wisered.com/proxy/token",
      "userinfo_endpoint":"",
      "jwks_uri":"http://etda-proxy.wisered.com/proxy/.well-known/jwks.json",
      "client_id":"7e4ca2fa5d074543cf6a",
      "client_secret":"2fad960c94a967fb12027c374ead9c4026c49955",
      "assertion_consumer":"http://etda-rp.wisered.com/assertion_consumer",
      "scope":"openid",
      "alg":"RS256",
      "idps":"urn:did:idp:google"
    },
    {
      "name":"proxy_google_identity-server",
      "issuer":"http://etda-proxy.wisered.com",
      "authorization_endpoint":"http://etda-proxy.wisered.com/proxy",
      "token_endpoint":"http://etda-proxy.wisered.com/proxy/token",
      "userinfo_endpoint":"",
      "jwks_uri":"http://etda-proxy.wisered.com/proxy/.well-known/jwks.json",
      "client_id":"7e4ca2fa5d074543cf6a",
      "client_secret":"2fad960c94a967fb12027c374ead9c4026c49955",
      "assertion_consumer":"http://etda-rp.wisered.com/assertion_consumer",
      "scope":"openid",
      "alg":"RS256",
      "idps":"urn:did:idp:google urn:did:idp:identity-server"
    },
    {
      "name":"d1_proxy",
      "issuer":"http://203.148.189.26:8080/proxy",
      "authorization_endpoint":"http://203.148.189.26:8080/proxy/list.htm",
      "token_endpoint":"http://203.148.189.26:8080/proxy/oauth/token",
      "userinfo_endpoint":"",
      "jwks_uri":"http://203.148.189.26:8080/proxy/.well-known/openid-configuration/jwks",
      "client_id":"8263c111-fd29-4e7d-8814-4ab9cfd5548c",
      "client_secret":"47bd1723-1225-47be-98d4-9af027bd895a",
      "assertion_consumer":"http://etda-rp.wisered.com/assertion_consumer",
      "scope":"openid profile",
      "alg":"RS256"
    },
    {
      "name":"omise_proxy",
      "issuer":"http://proxy.qa.maqe.com",
      "authorization_endpoint":"http://proxy.qa.maqe.com/oauth2/authorize",
      "token_endpoint":"http://proxy.qa.maqe.com/oauth2/token",
      "userinfo_endpoint":"",
      "jwks_uri":"http://proxy.qa.maqe.com/jwks.json",
      "client_id":"2",
      "client_secret":"pyw0Ub6qz0C1VcP8pnPeH0xDpRCTeecTOw2hnikT",
      "assertion_consumer":"http://etda-rp.wisered.com/assertion_consumer",
      "scope":"openid profile",
      "alg":"RS256"
    }
  ]
}
